ポスター効果検証
…
  #フレーズとイラストのタイプ分類が先頭列に来るよう整備
  relocate(PhraseType, .after = SurvayType) %>%
  relocate(Illustration, .after = PhraseType) 
  
# F案（フレーズがnormal, イラストがNo_image）がInterceptになるように調整
cross_data2$PhraseType <- factor(cross_data2$PhraseType, levels = c("基準メッセージ", "社会規範メッセージ", "簡素化メッセージ"))
cross_data2$Illustration <- factor(cross_data2$Illustration, levels = c("イラストなし", "目のイラスト", "社会規範イラスト")) 

cross_data2

## # A tibble: 868 × 15
##     ...1 TimeStamp          SurvayType      PhraseType  Illustration PosterScore
##    <dbl> <chr>              <chr>           <fct>       <fct>              <dbl>
##  1   204 8/21/2024 11:05:01 社会規範イラス… 基準メッセ… 社会規範イ…            4
##  2   205 8/21/2024 11:05:23 社会規範イラス… 基準メッセ… 社会規範イ…           57
##  3   206 8/21/2024 11:05:29 社会規範イラス… 基準メッセ… 社会規範イ…           72
##  4   207 8/21/2024 11:06:00 社会規範イラス… 基準メッセ… 社会規範イ…           80
##  5   208 8/21/2024 11:06:15 社会規範イラス… 基準メッセ… 社会規範イ…            6
##  6   209 8/21/2024 11:06:54 社会規範イラス… 基準メッセ… 社会規範イ…           10
##  7   210 8/21/2024 11:06:57 社会規範イラス… 基準メッセ… 社会規範イ…           50
##  8   211 8/21/2024 11:07:00 社会規範イラス… 基準メッセ… 社会規範イ…           30
##  9   212 8/21/2024 11:07:09 社会規範イラス… 基準メッセ… 社会規範イ…           82
## 10   213 8/21/2024 11:07:30 社会規範イラス… 基準メッセ… 社会規範イ…           70
## # ℹ 858 more rows
## # ℹ 9 more variables: ChooseHigh_Poster <dbl>, ChooseLow_Poster <dbl>,
## #   Age <chr>, Sex <chr>, ThrowOut <chr>, Awareness_Tra <dbl>,
## #   Awareness_Env <dbl>, Thoughts <chr>, Acton <chr>
…
